{
  "total": 22241,
  "page": "1",
  "pages": 1113,
  "response": [
    {
      "id": 28609,
      "guid": "2bbed948-3c67-48d7-b466-70940f45f1ba",
      "status": 1,
      "username": "load.guestajdyh.1625169703",
      "email": "guestload@mdfmmf.com",
      "auth_mode": "local",
      "tags": null,
      "language": null,
      "created_at": "2021-07-01T20:01:43.000Z",
      "created_by": 1,
      "updated_at": "2021-07-01T20:01:43.000Z",
      "updated_by": 1,
      "last_login": "2021-07-01T20:01:43.000Z",
      "visibility": 2,
      "time_zone": "UTC",
      "contentcontainer_id": 33515,
      "authclient_id": null,
      "profile_id": null,
      "banner_id": null,
      "global_id": null,
      "timeStamp": null
    },
    {
      "id": 28608,
      "guid": "2604a5ae-594e-482a-98de-df2a8392d6e5",
      "status": 1,
      "username": "load.guesttkzrf.1625169631",
      "email": "guestload@hjqlda.com",
      "auth_mode": "local",
      "tags": null,
      "language": null,
      "created_at": "2021-07-01T20:00:31.000Z",
      "created_by": 1,
      "updated_at": "2021-07-01T20:00:31.000Z",
      "updated_by": 1,
      "last_login": "2021-07-01T20:00:31.000Z",
      "visibility": 2,
      "time_zone": "UTC",
      "contentcontainer_id": 33514,
      "authclient_id": null,
      "profile_id": null,
      "banner_id": null,
      "global_id": null,
      "timeStamp": null
    },
    {
      "id": 28607,
      "guid": "d222830e-a15d-4861-a41e-26fbeea1b169",
      "status": 1,
      "username": "load.guesthbpwt.1625169554",
      "email": "guestload@mowgjl.com",
      "auth_mode": "local",
      "tags": null,
      "language": null,
      "created_at": "2021-07-01T19:59:14.000Z",
      "created_by": 1,
      "updated_at": "2021-07-01T19:59:14.000Z",
      "updated_by": 1,
      "last_login": "2021-07-01T19:59:14.000Z",
      "visibility": 2,
      "time_zone": "UTC",
      "contentcontainer_id": 33513,
      "authclient_id": null,
      "profile_id": null,
      "banner_id": null,
      "global_id": null,
      "timeStamp": null
    },
    {
      "id": 28606,
      "guid": "2fdc2b06-515b-4be0-a017-7ba962976f62",
      "status": 1,
      "username": "load.guestwsnle.1625168605",
      "email": "guestload@kiobjz.com",
      "auth_mode": "local",
      "tags": null,
      "language": null,
      "created_at": "2021-07-01T19:43:25.000Z",
      "created_by": 1,
      "updated_at": "2021-07-01T19:43:25.000Z",
      "updated_by": 1,
      "last_login": "2021-07-01T19:43:25.000Z",
      "visibility": 2,
      "time_zone": "UTC",
      "contentcontainer_id": 33512,
      "authclient_id": null,
      "profile_id": null,
      "banner_id": null,
      "global_id": null,
      "timeStamp": null
    },
    {
      "id": 28605,
      "guid": "e738135d-b04e-4213-ba93-244ddca661b6",
      "status": 1,
      "username": "load.guesthnsou.1625168407",
      "email": "guestload@ooywla.com",
      "auth_mode": "local",
      "tags": null,
      "language": null,
      "created_at": "2021-07-01T19:40:07.000Z",
      "created_by": 1,
      "updated_at": "2021-07-01T19:40:07.000Z",
      "updated_by": 1,
      "last_login": "2021-07-01T19:40:07.000Z",
      "visibility": 2,
      "time_zone": "UTC",
      "contentcontainer_id": 33511,
      "authclient_id": null,
      "profile_id": null,
      "banner_id": null,
      "global_id": null,
      "timeStamp": null
    },
    {
      "id": 28604,
      "guid": "23b86124-bc21-4117-b00b-1496deb8d14a",
      "status": 1,
      "username": "load.guestscdwq.1625168376",
      "email": "guestload@vbhnhb.com",
      "auth_mode": "local",
      "tags": null,
      "language": null,
      "created_at": "2021-07-01T19:39:36.000Z",
      "created_by": 1,
      "updated_at": "2021-07-01T19:39:36.000Z",
      "updated_by": 1,
      "last_login": "2021-07-01T19:39:36.000Z",
      "visibility": 2,
      "time_zone": "UTC",
      "contentcontainer_id": 33510,
      "authclient_id": null,
      "profile_id": null,
      "banner_id": null,
      "global_id": null,
      "timeStamp": null
    },
    {
      "id": 28603,
      "guid": "cbb3191b-5588-444d-ab11-83070666e5d0",
      "status": 1,
      "username": "load.guestkazdq.1625167613",
      "email": "guestload@axlxjk.com",
      "auth_mode": "local",
      "tags": null,
      "language": null,
      "created_at": "2021-07-01T19:26:53.000Z",
      "created_by": 1,
      "updated_at": "2021-07-01T19:26:53.000Z",
      "updated_by": 1,
      "last_login": "2021-07-01T19:26:53.000Z",
      "visibility": 2,
      "time_zone": "UTC",
      "contentcontainer_id": 33509,
      "authclient_id": null,
      "profile_id": null,
      "banner_id": null,
      "global_id": null,
      "timeStamp": null
    },
    {
      "id": 28602,
      "guid": "2983a421-ae15-47f1-b728-d2fb03b2d7b0",
      "status": 1,
      "username": "load.guesthdadd.1625167530",
      "email": "guestload@ekkwom.com",
      "auth_mode": "local",
      "tags": null,
      "language": null,
      "created_at": "2021-07-01T19:25:30.000Z",
      "created_by": 1,
      "updated_at": "2021-07-01T19:25:30.000Z",
      "updated_by": 1,
      "last_login": "2021-07-01T19:25:30.000Z",
      "visibility": 2,
      "time_zone": "UTC",
      "contentcontainer_id": 33508,
      "authclient_id": null,
      "profile_id": null,
      "banner_id": null,
      "global_id": null,
      "timeStamp": null
    },
    {
      "id": 28601,
      "guid": "1deefaa8-0b73-4a1f-ba59-53d0452a5478",
      "status": 1,
      "username": "Test.Consultant1625159104090",
      "email": "750351@test.com",
      "auth_mode": "",
      "tags": "",
      "language": "en_US",
      "created_at": null,
      "created_by": null,
      "updated_at": null,
      "updated_by": null,
      "last_login": null,
      "visibility": 1,
      "time_zone": "",
      "contentcontainer_id": 33506,
      "authclient_id": null,
      "profile_id": null,
      "banner_id": null,
      "global_id": "750351c01",
      "timeStamp": null
    },
    {
      "id": 28600,
      "guid": "645f4c26-389d-4515-87bb-e4b76c2db70e",
      "status": 1,
      "username": "Test.Consultant1625159092269",
      "email": "750350@test.com",
      "auth_mode": "",
      "tags": null,
      "language": "en_US",
      "created_at": null,
      "created_by": null,
      "updated_at": null,
      "updated_by": null,
      "last_login": null,
      "visibility": 1,
      "time_zone": null,
      "contentcontainer_id": 33504,
      "authclient_id": null,
      "profile_id": null,
      "banner_id": null,
      "global_id": "750350c01",
      "timeStamp": null
    },
    {
      "id": 28599,
      "guid": "132d3638-289f-4665-a610-ad0321c1e9b4",
      "status": 1,
      "username": "Test.Consultant1625159089667",
      "email": "750349@test.com",
      "auth_mode": "",
      "tags": null,
      "language": "en_US",
      "created_at": null,
      "created_by": null,
      "updated_at": null,
      "updated_by": null,
      "last_login": null,
      "visibility": 1,
      "time_zone": null,
      "contentcontainer_id": 33502,
      "authclient_id": null,
      "profile_id": null,
      "banner_id": null,
      "global_id": "750349c01",
      "timeStamp": null
    },
    {
      "id": 28598,
      "guid": "48b428a2-19c8-4bf6-8187-4e0131c041ea",
      "status": 1,
      "username": "Test.Consultant1625159082351",
      "email": "750348@test.com",
      "auth_mode": "",
      "tags": null,
      "language": "en_US",
      "created_at": null,
      "created_by": null,
      "updated_at": null,
      "updated_by": null,
      "last_login": null,
      "visibility": 1,
      "time_zone": null,
      "contentcontainer_id": 33500,
      "authclient_id": null,
      "profile_id": null,
      "banner_id": null,
      "global_id": "750348c01",
      "timeStamp": null
    },
    {
      "id": 28597,
      "guid": "b00d8504-655d-4138-9cba-732b95a8ca53",
      "status": 1,
      "username": "Test.Consultant1625159079624",
      "email": "750347@test.com",
      "auth_mode": "",
      "tags": null,
      "language": "en_US",
      "created_at": null,
      "created_by": null,
      "updated_at": null,
      "updated_by": null,
      "last_login": null,
      "visibility": 1,
      "time_zone": null,
      "contentcontainer_id": 33498,
      "authclient_id": null,
      "profile_id": null,
      "banner_id": null,
      "global_id": "750347c01",
      "timeStamp": null
    },
    {
      "id": 28596,
      "guid": "6be34938-e91e-47fe-bd50-7dfe3f4f7512",
      "status": 1,
      "username": "Test.Consultant1625159072319",
      "email": "750346@test.com",
      "auth_mode": "",
      "tags": null,
      "language": "en_US",
      "created_at": null,
      "created_by": null,
      "updated_at": null,
      "updated_by": null,
      "last_login": null,
      "visibility": 1,
      "time_zone": null,
      "contentcontainer_id": 33496,
      "authclient_id": null,
      "profile_id": null,
      "banner_id": null,
      "global_id": "750346c01",
      "timeStamp": null
    },
    {
      "id": 28595,
      "guid": "7242a472-7793-441d-af96-7b71c02c8083",
      "status": 1,
      "username": "Test.Consultant1625159069692",
      "email": "750345@test.com",
      "auth_mode": "",
      "tags": null,
      "language": "en_US",
      "created_at": null,
      "created_by": null,
      "updated_at": null,
      "updated_by": null,
      "last_login": null,
      "visibility": 1,
      "time_zone": null,
      "contentcontainer_id": 33494,
      "authclient_id": null,
      "profile_id": null,
      "banner_id": null,
      "global_id": "750345c01",
      "timeStamp": null
    },
    {
      "id": 28594,
      "guid": "ecb432d2-0da7-4060-8641-7798eab1f4a4",
      "status": 1,
      "username": "Test.Consultant1625159061529",
      "email": "750344@test.com",
      "auth_mode": "",
      "tags": null,
      "language": "en_US",
      "created_at": null,
      "created_by": null,
      "updated_at": null,
      "updated_by": null,
      "last_login": null,
      "visibility": 1,
      "time_zone": null,
      "contentcontainer_id": 33492,
      "authclient_id": null,
      "profile_id": null,
      "banner_id": null,
      "global_id": "750344c01",
      "timeStamp": null
    },
    {
      "id": 28593,
      "guid": "73262d70-ba27-49ec-b848-140925ffa370",
      "status": 1,
      "username": "Test.Consultant1625159054776",
      "email": "750343@test.com",
      "auth_mode": "",
      "tags": null,
      "language": "en_US",
      "created_at": null,
      "created_by": null,
      "updated_at": null,
      "updated_by": null,
      "last_login": null,
      "visibility": 1,
      "time_zone": null,
      "contentcontainer_id": 33490,
      "authclient_id": null,
      "profile_id": null,
      "banner_id": null,
      "global_id": "750343c01",
      "timeStamp": null
    },
    {
      "id": 28592,
      "guid": "a5b92c0b-f807-467d-8927-21e9da3d6455",
      "status": 1,
      "username": "Test.Consultant1625159047582",
      "email": "750342@test.com",
      "auth_mode": "",
      "tags": null,
      "language": "en_US",
      "created_at": null,
      "created_by": null,
      "updated_at": null,
      "updated_by": null,
      "last_login": null,
      "visibility": 1,
      "time_zone": null,
      "contentcontainer_id": 33488,
      "authclient_id": null,
      "profile_id": null,
      "banner_id": null,
      "global_id": "750342c01",
      "timeStamp": null
    },
    {
      "id": 28591,
      "guid": "9dd06fe0-a625-4d94-a6f4-6513c91105cc",
      "status": 1,
      "username": "Test.Consultant1625159041547",
      "email": "750341@test.com",
      "auth_mode": "",
      "tags": null,
      "language": "en_US",
      "created_at": null,
      "created_by": null,
      "updated_at": null,
      "updated_by": null,
      "last_login": null,
      "visibility": 1,
      "time_zone": null,
      "contentcontainer_id": 33486,
      "authclient_id": null,
      "profile_id": null,
      "banner_id": null,
      "global_id": "750341c01",
      "timeStamp": null
    },
    {
      "id": 28590,
      "guid": "10345dec-037f-4856-9e5e-072971b529c1",
      "status": 1,
      "username": "Test.Consultant1625159034484",
      "email": "750340@test.com",
      "auth_mode": "",
      "tags": null,
      "language": "en_US",
      "created_at": null,
      "created_by": null,
      "updated_at": null,
      "updated_by": null,
      "last_login": null,
      "visibility": 1,
      "time_zone": null,
      "contentcontainer_id": 33483,
      "authclient_id": null,
      "profile_id": null,
      "banner_id": null,
      "global_id": "750340c01",
      "timeStamp": null
    }
  ]
}